TOPIC("ArrayCtrl_en-us")
#include "ArrayCtrl_en-us.tppi"
END_TOPIC

TOPIC("MessageBoxes_en-us")
#include "MessageBoxes_en-us.tppi"
END_TOPIC

TOPIC("Upp_en-us")
#include "Upp_en-us.tppi"
END_TOPIC

